{
  "$schema": "http://json-schema.org/draft-06/schema#",
  "type": "array",
  "items": {
    "type": "object",
    "properties": {
      "title": {
        "type": "string",
        "title": "Title"
      },
      "text": {
        "type": "string",
        "title": "Text"
      }
    }
  }
}